<?xml version="1.0" encoding="UTF-8"?>
<svg width="45.829mm" height="11.838mm" version="1.1" viewBox="0 0 45.829 11.838" xmlns="http://www.w3.org/2000/svg" xmlns:cc="http://creativecommons.org/ns#" xmlns:dc="http://purl.org/dc/elements/1.1/" xmlns:rdf="http://www.w3.org/1999/02/22-rdf-syntax-ns#" shape-rendering="geometricPrecision">
 <metadata>
  <rdf:RDF>
   <cc:Work rdf:about="">
    <dc:format>image/svg+xml</dc:format>
    <dc:type rdf:resource="http://purl.org/dc/dcmitype/StillImage"/>
    <dc:title/>
   </cc:Work>
  </rdf:RDF>
 </metadata>
 <g transform="translate(-58.051 -7.4098)">
  <g transform="matrix(.061906 -.044558 .047446 .0594 50.851 10.057)">
   <g transform="rotate(23.099 122.31 177.73)">
    <path d="m37.425 87.128 111.76-0.24382 7.6717 50.208-18.718 45.86-43.784 34.673-49.176-37.521-13.003-50.501z" fill="#ffc944" fill-rule="evenodd"/>
    <g transform="translate(10.439 25.866)" stroke-width=".97594">
     <g fill="#f44" stroke-width=".97594">
      <path x="38.877296" y="67.409248" width="12.928237" height="102.35623" d="m38.877 67.409h12.928v102.36h-12.928z"/>
      <path x="116.01588" y="67.409248" width="12.928237" height="103.55851" d="m116.02 67.409h12.928v103.56h-12.928z"/>
      <path x="64.590149" y="67.409248" width="12.928237" height="117.3368" d="m64.59 67.409h12.928v117.34h-12.928z"/>
      <path x="90.303017" y="67.409248" width="12.928237" height="117.8913" d="m90.303 67.409h12.928v117.89h-12.928z"/>
     </g>
     <path transform="scale(.26458)" d="m78.129 200.28s-25.043 112.46-25.043 183.5c0 71.041 26.675 206 97.383 275.07 70.708 69.072 166.67 103.24 166.67 103.24s95.966-34.153 166.67-103.22c70.708-69.071 97.383-204.03 97.383-275.07 0-71.041-25.043-183.5-25.043-183.5l-239.01-0.01zm48.352 58.17 381.33 0.016c6.9831 38.198 15.223 88.397 15.223 125.34 0 56.481-31.011 185.74-79.857 233.46-42.022 41.049-97.335 68.769-126.02 81.605-28.689-12.843-84.005-40.575-126.03-81.629-48.85-47.719-79.865-176.97-79.865-233.45 0-36.94 8.2434-87.141 15.229-125.34z" fill="#f44" fill-rule="evenodd"/>
     <g fill="#ffc944" fill-rule="evenodd">
      <path d="m83.911 57.75-1.4487 3.2685-1.2386-2.4046-0.85546 2.6484-1.8005-1.9618c0.1197 1.5785 0.52002 3.578-0.04645 4.9483l5.3897-0.01867 5.3897 0.01867c-0.5632-1.6188-0.21215-3.2323-0.04623-4.9483l-1.8005 1.9618-0.85568-2.6484-1.2384 2.4046zm-6.88e-4 3.6508a0.91704 0.91704 0 0 1 6.88e-4 0 0.91704 0.91704 0 0 1 0.91702 0.91702 0.91704 0.91704 0 0 1-0.91702 0.91703 0.91704 0.91704 0 0 1-0.91703-0.91703 0.91704 0.91704 0 0 1 0.91636-0.91702z"/>
      <path d="m30.529 57.75-1.4487 3.2685-1.2386-2.4046-0.85546 2.6484-1.8005-1.9618c0.1197 1.5785 0.52002 3.578-0.04645 4.9483l5.3897-0.01867 5.3897 0.01867c-0.5632-1.6188-0.21215-3.2323-0.04623-4.9483l-1.8005 1.9618-0.85568-2.6484-1.2384 2.4046zm-6.94e-4 3.6508a0.91704 0.91704 0 0 1 6.94e-4 0 0.91704 0.91704 0 0 1 0.91702 0.91702 0.91704 0.91704 0 0 1-0.91702 0.91703 0.91704 0.91704 0 0 1-0.91703-0.91703 0.91704 0.91704 0 0 1 0.91636-0.91702z"/>
      <path d="m137.29 57.75-1.4487 3.2685-1.2386-2.4046-0.85546 2.6484-1.8005-1.9618c0.11969 1.5785 0.52001 3.578-0.0464 4.9483l5.3897-0.01867 5.3897 0.01867c-0.5632-1.6188-0.21215-3.2323-0.0462-4.9483l-1.8005 1.9618-0.85568-2.6484-1.2384 2.4046zm-6.9e-4 3.6508a0.91704 0.91704 0 0 1 6.9e-4 0 0.91704 0.91704 0 0 1 0.91702 0.91702 0.91704 0.91704 0 0 1-0.91702 0.91703 0.91704 0.91704 0 0 1-0.91703-0.91703 0.91704 0.91704 0 0 1 0.91637-0.91702z"/>
      <path d="m83.912 188.11-1.4487 3.2685-1.2386-2.4046-0.85546 2.6484-1.8005-1.9618c0.1197 1.5785 0.52002 3.578-0.04645 4.9483l5.3897-0.0187 5.3897 0.0187c-0.5632-1.6188-0.21215-3.2323-0.04623-4.9483l-1.8005 1.9618-0.85568-2.6484-1.2384 2.4046zm-6.94e-4 3.6508a0.91704 0.91704 0 0 1 6.94e-4 0 0.91704 0.91704 0 0 1 0.91703 0.91703 0.91704 0.91704 0 0 1-0.91703 0.91702 0.91704 0.91704 0 0 1-0.91702-0.91702 0.91704 0.91704 0 0 1 0.91636-0.91703z"/>
      <path d="m21.732 100.09-1.4487 3.2685-1.2386-2.4046-0.85546 2.6484-1.8005-1.9618c0.1197 1.5786 0.52002 3.578-0.04645 4.9483l5.3897-0.0187 5.3897 0.0187c-0.5632-1.6188-0.21215-3.2323-0.04623-4.9483l-1.8005 1.9618-0.85568-2.6484-1.2384 2.4046zm-6.87e-4 3.6508a0.91704 0.91704 0 0 1 6.87e-4 0 0.91704 0.91704 0 0 1 0.91702 0.91703 0.91704 0.91704 0 0 1-0.91702 0.91703 0.91704 0.91704 0 0 1-0.91703-0.91703 0.91704 0.91704 0 0 1 0.91636-0.91703z"/>
      <path d="m146.09 100.09-1.4487 3.2685-1.2386-2.4046-0.85546 2.6484-1.8005-1.9618c0.11969 1.5786 0.52002 3.578-0.0464 4.9483l5.3897-0.0187 5.3897 0.0187c-0.5632-1.6188-0.21215-3.2323-0.0462-4.9483l-1.8005 1.9618-0.85568-2.6484-1.2384 2.4046zm-6.9e-4 3.6508a0.91704 0.91704 0 0 1 6.9e-4 0 0.91704 0.91704 0 0 1 0.91702 0.91703 0.91704 0.91704 0 0 1-0.91702 0.91702 0.91704 0.91704 0 0 1-0.91703-0.91702 0.91704 0.91704 0 0 1 0.91636-0.91703z"/>
      <path d="m34.736 150.59-1.4487 3.2685-1.2386-2.4046-0.85546 2.6484-1.8005-1.9618c0.1197 1.5786 0.52002 3.578-0.04645 4.9483l5.3897-0.0187 5.3897 0.0187c-0.5632-1.6188-0.21215-3.2323-0.04623-4.9483l-1.8005 1.9618-0.85568-2.6484-1.2384 2.4046zm-6.88e-4 3.6508a0.91704 0.91704 0 0 1 6.88e-4 0 0.91704 0.91704 0 0 1 0.91702 0.91703 0.91704 0.91704 0 0 1-0.91702 0.91703 0.91704 0.91704 0 0 1-0.91703-0.91703 0.91704 0.91704 0 0 1 0.91636-0.91703z"/>
      <path d="m133.09 150.59-1.4487 3.2685-1.2386-2.4046-0.85546 2.6484-1.8005-1.9618c0.11969 1.5786 0.52002 3.578-0.0464 4.9483l5.3897-0.0187 5.3897 0.0187c-0.5632-1.6188-0.21215-3.2323-0.0462-4.9483l-1.8005 1.9618-0.85568-2.6484-1.2384 2.4046zm-7.9e-4 3.6508a0.91704 0.91704 0 0 1 7.9e-4 0 0.91704 0.91704 0 0 1 0.91702 0.91703 0.91704 0.91704 0 0 1-0.91702 0.91702 0.91704 0.91704 0 0 1-0.91703-0.91702 0.91704 0.91704 0 0 1 0.91636-0.91703z"/>
     </g>
    </g>
   </g>
  </g>
  <g>
   <rect transform="matrix(1 0 -.17147 .98519 0 0)" x="65.875" y="9.8462" width="16.763" height="7.206" fill="#00008b" stroke-linecap="round" stroke-linejoin="round" stroke-width="2.9888"/>
   <g fill="#fff" stroke-width=".26458px" aria-label="PET">
    <path d="m67.693 10.781h-2.1943l-0.98778 4.9389h1.6651l0.23989-1.2136h0.85372c1.5169 0 2.4977-0.83961 2.4977-2.0884 0-1.0301-0.74789-1.6369-2.0743-1.6369zm-0.33867 2.4412h-0.68439l0.23283-1.1571h0.55739c0.381 0 0.62089 0.14817 0.62089 0.50094 0 0.41628-0.26811 0.65617-0.72672 0.65617z"/>
    <path d="m74.431 12.036 0.254-1.2559h-4.0146l-0.98778 4.9389h4.1063l0.254-1.2559h-2.4765l0.127-0.64911h2.0955l0.23989-1.1994h-2.0884l0.11289-0.57856z"/>
    <path d="m75.503 15.719h1.6651l0.72672-3.6477h1.4464l0.26106-1.2912h-4.5579l-0.26106 1.2912h1.4464z"/>
   </g>
   <g stroke-width=".26458px" aria-label="MENU">
    <path d="m85.924 10.781-2.0673 2.6247-1.0724-2.6247h-1.3547l-0.98778 4.9389h1.5169l0.4445-2.2225 0.762 1.778h0.73378l1.3899-1.8062-0.43744 2.2507h1.5169l0.97367-4.9389z"/>
    <path d="m91.921 12.036 0.254-1.2559h-4.0146l-0.98778 4.9389h4.1063l0.254-1.2559h-2.4765l0.127-0.64911h2.0955l0.23989-1.1994h-2.0884l0.11289-0.57856z"/>
    <path d="m96.154 10.781-0.45861 2.3001-1.4182-2.3001h-1.3688l-0.98778 4.9389h1.6228l0.45861-2.3001 1.4182 2.3001h1.3688l0.98778-4.9389z"/>
    <path d="m100.08 15.832c1.517 0 2.413-0.78317 2.7093-2.2648l0.55739-2.7869h-1.6369l-0.53622 2.6882c-0.14817 0.74083-0.40923 1.016-0.889 1.016-0.42334 0-0.66323-0.21167-0.66323-0.65617 0-0.10583 0.01411-0.22578 0.04233-0.35983l0.53622-2.6882h-1.6651l-0.54328 2.7164c-0.03528 0.18344-0.05644 0.35278-0.05644 0.52211 0 1.1077 0.80433 1.8133 2.1449 1.8133z"/>
   </g>
  </g>
 </g>
</svg>
